10148000,10148000,10148000,10148000,10148000,#0
10148000,10148000,10148000,10148000,10148000,#1
10148000,10148000,10148000,10148000,10148000,#2
10148000,10148000,10148000,10148000,10148000,#3
10148000,10148000,10148000,10148000,10148000,#4
10148000,10148000,10148000,10148000,10148000,#5
10148000,10148000,10148000,10148000,10148000,#6
10148000,10148000,10148000,10148000,10148000,#7
10148000,10148000,10148000,10148000,10148000,#8
10148000,10148000,10148000,10148000,10148000,#9
10148000,10148000,10148000,10148000,10148000,#10
10148000,10148000,10148000,10148000,10148000,#11
10148000,10148000,10148000,10148000,10148000,#12
10148000,10148000,10148000,10148000,10148000,#13
10148000,10148000,10148000,10148000,10148000,#14
10148000,10148000,10148000,10148000,10148000,#15
10148000,10148000,10148000,10148000,10148000,#16
10148000,10148000,10148000,10148000,10148000,#17
10148000,10148000,10148000,10148000,10148000,#18
10148000,10148000,10148000,10148000,10148000,#19
10148000,10148000,10148000,10148000,10148000,#20
10148000,10148000,10148000,10148000,10148000,#21
10148000,10148000,10148000,10148000,10148000,#22
10148000,10148000,10148000,10148000,10148000,#23
PSK500R,PSK500R,PSK500R,PSK500R,PSK500R,

